அஞ்சல் பட்டியல் '$ பட்டியல் பெயர்' உங்களுக்காக உருவாக்கப்பட்டுள்ளது. தி
 உங்கள் அஞ்சல் பட்டியல் பற்றிய சில அடிப்படை தகவல்கள் பின்வருமாறு.

 உங்கள் பட்டியலின் பயனர்களுக்கு (நிர்வாகிகள் அல்ல) மின்னஞ்சல் அடிப்படையிலான இடைமுகம் உள்ளது;
 'உதவி' என்ற வார்த்தையுடன் ஒரு செய்தியை அனுப்புவதன் மூலம் அதைப் பயன்படுத்துவது பற்றிய தகவலைப் பெறலாம்
 பொருள் அல்லது உடலில், க்கு:

 $ request_email

 எல்லா கேள்விகளையும் $ site_email க்கு உரையாற்றவும்.
