$ உறுப்பினரின் சந்தா அவர்களின் பவுன்ச் மதிப்பெண் காரணமாக $ பட்டியல் பெயரில் முடக்கப்பட்டுள்ளது
 அஞ்சல் பட்டியலின் பவுன்ச்_ச்கோர்_நெர்சோல்டை மீறுகிறது.

 கிடைத்தால் தூண்டுதல் டி.எச்.என் இணைக்கப்பட்டுள்ளது.
